…
0.01

0.23

1.24

▃▇▅▂▁

# select relevant data and transform to tidy format
tidyweather <- weather %>% 
  select(c(Year, Jan, Feb, Mar, Apr, May, Jun, Jul, Aug, Sep, Oct, Nov, Dec)) %>% 
  pivot_longer(cols=2:13, names_to="Month", values_to="Delta") 
tidyweather

## # A tibble: 1,680 x 3
##     Year Month Delta
##    <dbl> <chr> <dbl>
##  1  1880 Jan   -0.54
##  2  1880 Feb   -0.38
##  3  1880 Mar   -0.26
##  4  1880 Apr   -0.37
##  5  1880 May   -0.11
##  6  1880 Jun   -0.22
##  7  1880 Jul   -0.23
##  8  1880 Aug   -0.24
##  9  1880 Sep   -0.26
## 10  1880 Oct   -0.32
## # … with 1,670 more rows
…
